<svg xmlns="http://www.w3.org/2000/svg" width="98" height="27" viewBox="0 0 98 27">
  <g id="Group_103" data-name="Group 103" transform="translate(-243 -354)">
    <rect id="Rectangle_461" data-name="Rectangle 461" width="98" height="27" rx="10" transform="translate(243 354)" fill="#29c17e"/>
    <path id="Path_110" data-name="Path 110" d="M13.32,10.06,11.407,8.147a1.272,1.272,0,0,0-2.118.478,1.3,1.3,0,0,1-1.5.82A5.9,5.9,0,0,1,4.234,5.892a1.238,1.238,0,0,1,.82-1.5,1.272,1.272,0,0,0,.478-2.118L3.619.359a1.364,1.364,0,0,0-1.845,0l-1.3,1.3c-1.3,1.366.137,4.987,3.348,8.2s6.832,4.714,8.2,3.348l1.3-1.3A1.364,1.364,0,0,0,13.32,10.06Z" transform="translate(253.282 360.293)" fill="#fff"/>
    <text id="Call_Now" data-name="Call Now" transform="translate(275 371)" fill="#fff" font-size="12" font-family="OpenSans, Open Sans"><tspan x="0" y="0">Call Now</tspan></text>
  </g>
</svg>
