<svg xmlns="http://www.w3.org/2000/svg" width="24.705" height="24.705" viewBox="0 0 24.705 24.705">
  <g id="covid-19-icon" transform="translate(0 0)">
    <g id="XMLID_1687_" transform="translate(0 0)">
      <path id="XMLID_898_" d="M13.438,24.705H11.267a1.448,1.448,0,0,1-.362-2.849v-.6a.291.291,0,0,0-.237-.283A8.7,8.7,0,0,1,7.451,19.64a.292.292,0,0,0-.37.031l-.428.428a1.445,1.445,0,0,1-2.267,1.755L2.85,20.319A1.448,1.448,0,0,1,4.61,18.048l.424-.424a.292.292,0,0,0,.031-.37,8.7,8.7,0,0,1-1.332-3.217A.291.291,0,0,0,3.45,13.8h-.6A1.45,1.45,0,0,1,1.4,14.885,1.454,1.454,0,0,1,0,13.415V11.267A1.448,1.448,0,0,1,1.5,9.82a1.466,1.466,0,0,1,1.346,1.085H3.45a.291.291,0,0,0,.283-.237A8.7,8.7,0,0,1,5.065,7.451a.292.292,0,0,0-.031-.37l-.424-.424A1.448,1.448,0,0,1,2.85,4.386L4.386,2.85A1.448,1.448,0,0,1,6.657,4.61l.424.424a.292.292,0,0,0,.37.031,8.7,8.7,0,0,1,3.217-1.332A.291.291,0,0,0,10.9,3.45v-.6A1.448,1.448,0,0,1,11.267,0h2.171A1.448,1.448,0,0,1,13.8,2.849v.6a.291.291,0,0,0,.237.283,8.7,8.7,0,0,1,3.217,1.332.292.292,0,0,0,.37-.031l.425-.425A1.448,1.448,0,0,1,20.319,2.85l1.535,1.535A1.448,1.448,0,0,1,20.1,6.657l-.424.424a.292.292,0,0,0-.031.37,8.7,8.7,0,0,1,1.332,3.217.291.291,0,0,0,.283.237h.606a1.461,1.461,0,0,1,1.267-1.08h0a1.448,1.448,0,0,1,1.578,1.442v2.171a1.445,1.445,0,0,1-2.844.362h-.606a.291.291,0,0,0-.283.237,8.7,8.7,0,0,1-1.332,3.217.292.292,0,0,0,.031.37l.424.424a1.448,1.448,0,0,1,1.759,2.271l-1.535,1.535A1.445,1.445,0,0,1,18.052,20.1l-.428-.428a.292.292,0,0,0-.37-.031,8.7,8.7,0,0,1-3.217,1.332.291.291,0,0,0-.237.283v.6a1.448,1.448,0,0,1-.362,2.849ZM7.284,18.624a1.262,1.262,0,0,1,.706.216,7.735,7.735,0,0,0,2.862,1.185,1.257,1.257,0,0,1,1.018,1.23v.917a.6.6,0,0,1-.6.6.483.483,0,0,0,0,.965h2.171a.483.483,0,0,0,0-.965.6.6,0,0,1-.6-.6v-.917a1.257,1.257,0,0,1,1.018-1.23,7.736,7.736,0,0,0,2.862-1.185,1.259,1.259,0,0,1,1.591.149l.664.664a.582.582,0,0,1,0,.822.5.5,0,0,0-.046.664.483.483,0,0,0,.713.033l1.535-1.535a.482.482,0,0,0-.682-.682l-.015.015a.582.582,0,0,1-.822,0l-.664-.664a1.259,1.259,0,0,1-.149-1.591,7.735,7.735,0,0,0,1.185-2.862,1.257,1.257,0,0,1,1.23-1.018h.938a.582.582,0,0,1,.581.581.5.5,0,0,0,.437.5.483.483,0,0,0,.528-.481V11.267a.483.483,0,0,0-.528-.481.5.5,0,0,0-.437.5.582.582,0,0,1-.581.581h-.938a1.257,1.257,0,0,1-1.23-1.018A7.736,7.736,0,0,0,18.84,7.99,1.259,1.259,0,0,1,18.989,6.4l.648-.648a.6.6,0,0,1,.853,0,.483.483,0,1,0,.682-.682L19.637,3.533a.483.483,0,0,0-.682.682.6.6,0,0,1,0,.853l-.648.648a1.259,1.259,0,0,1-1.592.149A7.735,7.735,0,0,0,13.853,4.68a1.257,1.257,0,0,1-1.018-1.23V2.533a.6.6,0,0,1,.6-.6.483.483,0,1,0,0-.965H11.267a.483.483,0,1,0,0,.965.6.6,0,0,1,.6.6V3.45a1.257,1.257,0,0,1-1.018,1.23A7.736,7.736,0,0,0,7.99,5.866,1.259,1.259,0,0,1,6.4,5.716L5.75,5.068a.6.6,0,0,1,0-.853.483.483,0,0,0-.683-.682L3.533,5.068a.483.483,0,0,0,.682.682.6.6,0,0,1,.853,0l.648.648A1.259,1.259,0,0,1,5.865,7.99,7.735,7.735,0,0,0,4.68,10.852,1.257,1.257,0,0,1,3.45,11.87H2.508a.578.578,0,0,1-.578-.578.5.5,0,0,0-.465-.508.483.483,0,0,0-.5.482v2.148a.5.5,0,0,0,.464.505.483.483,0,0,0,.5-.482.6.6,0,0,1,.6-.6H3.45a1.257,1.257,0,0,1,1.23,1.018,7.736,7.736,0,0,0,1.185,2.862,1.259,1.259,0,0,1-.149,1.591l-.664.664a.582.582,0,0,1-.822,0l-.015-.015a.482.482,0,0,0-.682.682l1.535,1.535a.483.483,0,0,0,.713-.033.5.5,0,0,0-.046-.664.582.582,0,0,1,0-.822l.664-.664a1.25,1.25,0,0,1,.885-.365Z" transform="translate(0 0)"/>
    </g>
    <g id="XMLID_1654_" transform="translate(8.462 6.267)">
      <path id="XMLID_895_" d="M177.4,133.931a2.027,2.027,0,1,1,2.027-2.027A2.029,2.029,0,0,1,177.4,133.931Zm0-3.088a1.062,1.062,0,1,0,1.062,1.062A1.063,1.063,0,0,0,177.4,130.843Z" transform="translate(-175.374 -129.878)"/>
    </g>
    <g id="XMLID_1656_" transform="translate(7.367 13.662)">
      <path id="XMLID_892_" d="M154.42,286.644a1.753,1.753,0,1,1,1.753-1.753A1.755,1.755,0,0,1,154.42,286.644Zm0-2.541a.788.788,0,1,0,.788.788A.789.789,0,0,0,154.42,284.1Z" transform="translate(-152.667 -283.138)"/>
    </g>
    <g id="XMLID_1104_" transform="translate(12.759 10.743)">
      <path id="XMLID_891_" d="M267.389,228.6a2.978,2.978,0,0,1-2.96-2.631.483.483,0,1,1,.959-.112,2.015,2.015,0,1,0,2.225-2.239.483.483,0,0,1,.106-.959,2.98,2.98,0,0,1-.33,5.942Z" transform="translate(-264.426 -222.653)"/>
    </g>
    <g id="XMLID_1101_" transform="translate(14.62 7.811)">
      <path id="XMLID_890_" d="M303.483,162.845a.483.483,0,1,1,.341-.141A.486.486,0,0,1,303.483,162.845Z" transform="translate(-303 -161.88)"/>
    </g>
    <g id="XMLID_1094_" transform="translate(11.87 17.612)">
      <path id="XMLID_889_" d="M246.483,365.965a.483.483,0,1,1,.341-.141A.486.486,0,0,1,246.483,365.965Z" transform="translate(-246 -365)"/>
    </g>
    <g id="XMLID_1660_" transform="translate(6.45 11.876)">
      <path id="XMLID_888_" d="M134.153,247.1a.483.483,0,1,1,.341-.141A.485.485,0,0,1,134.153,247.1Z" transform="translate(-133.67 -246.13)"/>
    </g>
    <g id="XMLID_1493_" transform="translate(13.468 11.466)">
      <path id="XMLID_887_" d="M279.6,238.585a.483.483,0,1,1,.341-.141A.486.486,0,0,1,279.6,238.585Z" transform="translate(-279.12 -237.62)"/>
    </g>
  </g>
</svg>
