<svg xmlns="http://www.w3.org/2000/svg" width="34.844" height="25.994" viewBox="0 0 34.844 25.994">
  <g id="translate_icon" transform="translate(-15.997 -70.534)">
    <path id="Path_143" data-name="Path 143" d="M183.361,240H180.95a17.266,17.266,0,0,0,.215,2.2Z" transform="translate(-152.943 -157.127)" fill="#fff"/>
    <path id="Path_144" data-name="Path 144" d="M101.948,150.045a36.786,36.786,0,0,1-4.06-.9,11.583,11.583,0,0,0-1.666,5.45h5A18.307,18.307,0,0,1,101.948,150.045Z" transform="translate(-74.384 -72.891)" fill="#fff"/>
    <path id="Path_145" data-name="Path 145" d="M185.826,166.855v-2.776a36.988,36.988,0,0,1-4.16-.3,17.14,17.14,0,0,0-.722,4.385h3.576Z" transform="translate(-152.937 -86.453)" fill="#fff"/>
    <path id="Path_146" data-name="Path 146" d="M135.185,76.37a11.585,11.585,0,0,0-6.559,4.282,35.678,35.678,0,0,0,3.732.791A18.085,18.085,0,0,1,135.185,76.37Z" transform="translate(-104.429 -5.411)" fill="#fff"/>
    <path id="Path_147" data-name="Path 147" d="M199.9,78.005V72.2c-.122.006-.243.015-.364.024a16.98,16.98,0,0,0-3.413,5.518,35.838,35.838,0,0,0,3.777.263Z" transform="translate(-167.016 -1.545)" fill="#fff"/>
    <path id="Path_148" data-name="Path 148" d="M267.567,77.212a17.047,17.047,0,0,0-3.2-4.99c-.121-.01-.242-.018-.364-.024V78c.984-.016,1.972-.074,2.947-.171Z" transform="translate(-229.946 -1.543)" fill="#fff"/>
    <path id="Path_149" data-name="Path 149" d="M297.487,78.314a11.562,11.562,0,0,0-4.194-1.951,18.154,18.154,0,0,1,2.321,3.825Z" transform="translate(-257.106 -5.405)" fill="#fff"/>
    <path id="Path_150" data-name="Path 150" d="M264,167.1v1.611l1.676-1.676Q264.839,167.087,264,167.1Z" transform="translate(-229.946 -89.476)" fill="#fff"/>
    <path id="Path_151" data-name="Path 151" d="M101.213,240h-5a11.673,11.673,0,0,0,2.254,6.327l3.133-3.133A18.4,18.4,0,0,1,101.213,240Z" transform="translate(-74.372 -157.127)" fill="#fff"/>
    <path id="Path_152" data-name="Path 152" d="M177.4,137.11l-16.29,16.29a11.566,11.566,0,0,0,5.745,2.211,11.839,11.839,0,0,0,2.328,0c.161-.016.325-.036.5-.061a.582.582,0,0,1,.665.577v2.13l4.255-4.61a.587.587,0,0,1,.094-.082,11.653,11.653,0,0,0,3.062-15.937q-.172-.262-.36-.518Zm-9.381,13.9a1.165,1.165,0,1,1,1.165-1.165A1.165,1.165,0,0,1,168.016,151.009Zm3.495,0a1.165,1.165,0,1,1,1.165-1.165A1.165,1.165,0,0,1,171.511,151.009Zm3.5,0a1.165,1.165,0,1,1,1.165-1.165A1.165,1.165,0,0,1,175.006,151.009Z" transform="translate(-134.544 -61.729)" fill="#fff"/>
    <path id="Path_153" data-name="Path 153" d="M20.829,70.7a16.31,16.31,0,0,0-1.852,20.987l-.492-.073a.583.583,0,1,0-.171,1.152l1.966.291a.582.582,0,0,0,.663-.5l.218-1.747a.582.582,0,1,0-1.156-.144l-.049.393A15.146,15.146,0,0,1,21.649,71.53a.582.582,0,0,0-.82-.828Z" fill="#fff"/>
    <path id="Path_154" data-name="Path 154" d="M418.368,81.165h.438a.582.582,0,0,0,0-1.165h-1.748a.582.582,0,0,0-.582.582V82.33a.583.583,0,0,0,1.165,0v-.192a15.145,15.145,0,0,1-1.472,19.587.583.583,0,0,0,.828.82A16.31,16.31,0,0,0,418.368,81.165Z" transform="translate(-370.878 -8.777)" fill="#fff"/>
  </g>
</svg>
