<svg xmlns="http://www.w3.org/2000/svg" width="45.334" height="41.617" viewBox="0 0 45.334 41.617">
  <g id="veterinary_icon" transform="translate(-0.001 -20.986)">
    <g id="Group_168" data-name="Group 168" transform="translate(0.666 21.65)">
      <path id="Path_208" data-name="Path 208" d="M110.906,195.677c-.612,4.671-5.265,7.645-9.829,6.853a8.321,8.321,0,0,1-.853-.192,19.717,19.717,0,0,0-9.837-.021c-5.14,1.409-10.743-2.1-10.743-7.739a7.793,7.793,0,0,1,2.607-5.824,25.7,25.7,0,0,0,5.811-8.559,7.824,7.824,0,0,1,14.446,0,26.96,26.96,0,0,0,5.443,8.211A7.813,7.813,0,0,1,110.906,195.677Z" transform="translate(-73.257 -162.371)" fill="#17ad6b"/>
      <path id="Path_209" data-name="Path 209" d="M240.623,195.677c-.612,4.671-5.265,7.645-9.829,6.853h0c6.556-2.666,7.379-5.541,7.59-7.146a5.591,5.591,0,0,0-2.1-5.2,30.494,30.494,0,0,1-6.142-9.128,8.634,8.634,0,0,0-8.178-5.069l0,0a7.829,7.829,0,0,1,10.26,4.2,26.96,26.96,0,0,0,5.443,8.211A7.813,7.813,0,0,1,240.623,195.677Z" transform="translate(-202.973 -162.371)" fill="#119f60"/>
      <g id="Group_165" data-name="Group 165" transform="translate(34.999 12.148)">
        <path id="Path_210" data-name="Path 210" d="M410.984,172.926c-1.252,2.421-3.578,3.777-5.508,3.348a3.141,3.141,0,0,1-.76-.275c-2.04-1.054-2.541-4.137-1.119-6.886a6.19,6.19,0,0,1,4.014-3.347,3.368,3.368,0,0,1,2.253.274C411.9,167.093,412.406,170.176,410.984,172.926Z" transform="translate(-402.788 -165.686)" fill="#ffc599"/>
        <path id="Path_211" data-name="Path 211" d="M438.654,172.926c-1.252,2.421-3.578,3.777-5.508,3.348a7.941,7.941,0,0,0,2.732-3.064c1.458-2.821,1.155-5.947-.6-7.444a3.368,3.368,0,0,1,2.253.274C439.575,167.093,440.076,170.176,438.654,172.926Z" transform="translate(-430.458 -165.686)" fill="#f7aa74"/>
      </g>
      <g id="Group_166" data-name="Group 166" transform="translate(0 12.148)">
        <path id="Path_212" data-name="Path 212" d="M8.314,172.926c1.252,2.421,3.578,3.777,5.508,3.348a3.141,3.141,0,0,0,.76-.275c2.04-1.054,2.541-4.137,1.119-6.886a6.19,6.19,0,0,0-4.014-3.347,3.368,3.368,0,0,0-2.253.274C7.393,167.093,6.892,170.176,8.314,172.926Z" transform="translate(-7.505 -165.686)" fill="#ffc599"/>
        <path id="Path_213" data-name="Path 213" d="M8.314,172.926c1.252,2.421,3.578,3.777,5.508,3.348a7.942,7.942,0,0,1-2.732-3.064c-1.458-2.821-1.155-5.947.6-7.444a3.368,3.368,0,0,0-2.253.274C7.393,167.093,6.892,170.176,8.314,172.926Z" transform="translate(-7.505 -165.686)" fill="#f7aa74"/>
      </g>
      <g id="Group_167" data-name="Group 167" transform="translate(25.453 0.011)">
        <path id="Path_214" data-name="Path 214" d="M302.382,34.557c-.328,2.762-2.241,5.32-4.329,5.05a2.5,2.5,0,0,1-.973-.332c-1.448-.847-2.346-3.128-2.055-5.59a6.378,6.378,0,0,1,2.732-4.72,2.585,2.585,0,0,1,1.6-.331C301.347,28.87,302.735,31.582,302.382,34.557Z" transform="translate(-294.971 -28.615)" fill="#ffc599"/>
        <path id="Path_215" data-name="Path 215" d="M324.1,34.557c-.328,2.762-2.241,5.32-4.329,5.05a2.5,2.5,0,0,1-.973-.332,6.352,6.352,0,0,0,2.734-4.718c.291-2.461-.608-4.743-2.057-5.591a2.585,2.585,0,0,1,1.6-.331C323.065,28.87,324.452,31.582,324.1,34.557Z" transform="translate(-316.688 -28.615)" fill="#f7aa74"/>
      </g>
      <path id="Path_216" data-name="Path 216" d="M139.841,37.748a3.755,3.755,0,0,1-1.325,1.4,2.445,2.445,0,0,1-1.245.344c-1.9,0-3.713-2.275-4.044-5.069a6.966,6.966,0,0,1,.743-4.193,3.062,3.062,0,0,1,2.569-1.745,2.713,2.713,0,0,1,1.309.356,6.225,6.225,0,0,1,2.735,4.71A6.96,6.96,0,0,1,139.841,37.748Z" transform="translate(-122.047 -28.487)" fill="#ffc599"/>
      <path id="Path_217" data-name="Path 217" d="M138.518,39.151a2.444,2.444,0,0,1-1.245.344c-1.9,0-3.713-2.275-4.044-5.069a6.966,6.966,0,0,1,.743-4.193,3.062,3.062,0,0,1,2.569-1.745,2.713,2.713,0,0,1,1.309.356l0,.006c-1.449.848-2.348,3.13-2.057,5.591A6.36,6.36,0,0,0,138.518,39.151Z" transform="translate(-122.047 -28.487)" fill="#f7aa74"/>
      <path id="Path_218" data-name="Path 218" d="M195,275.935h-4.621v-4.619h-4.01v4.619h-4.621v4.008h4.621v4.619h4.01v-4.619H195Z" transform="translate(-166.317 -249.815)" fill="#ff2b56"/>
    </g>
    <g id="Group_169" data-name="Group 169" transform="translate(0.001 20.986)">
      <path id="Path_219" data-name="Path 219" d="M101.557,181.074a26.266,26.266,0,0,1-5.271-7.973,8.488,8.488,0,0,0-15.668,0,25.342,25.342,0,0,1-5.636,8.319l-.007.006a8.527,8.527,0,0,0-1.556,10.824.664.664,0,1,0,1.126-.7,7.055,7.055,0,0,1-1.07-3.8,7.161,7.161,0,0,1,2.382-5.327,26.192,26.192,0,0,0,5.98-8.792l0-.01a7.16,7.16,0,0,1,13.22,0l0,.01a27.593,27.593,0,0,0,5.584,8.418.68.68,0,0,0,.06.053,7.2,7.2,0,0,1-.522,11.727,8.06,8.06,0,0,1-6.618,1.042,20.377,20.377,0,0,0-10.191-.022,8.2,8.2,0,0,1-6.788-1.162.664.664,0,0,0-.76,1.089,9.544,9.544,0,0,0,7.9,1.354,19.057,19.057,0,0,1,9.483.02,9.384,9.384,0,0,0,7.708-1.213,8.529,8.529,0,0,0,.637-13.858Z" transform="translate(-65.759 -154.875)" fill="#58595b"/>
      <path id="Path_220" data-name="Path 220" d="M10.331,165.185A.664.664,0,1,0,9,165.233a3.4,3.4,0,0,1-1.565,3.307,2.588,2.588,0,0,1-1.2.284,5.173,5.173,0,0,1-4.176-3.071,6.006,6.006,0,0,1-.673-3.668A3.037,3.037,0,0,1,2.9,159.762c1.711-.884,4.122.366,5.374,2.787a.664.664,0,0,0,1.18-.61,7.347,7.347,0,0,0-3.2-3.254,4.33,4.33,0,0,0-3.963-.1,4.327,4.327,0,0,0-2.209,3.29,7.339,7.339,0,0,0,.8,4.491,7.347,7.347,0,0,0,3.2,3.253,4.929,4.929,0,0,0,2.166.535,3.886,3.886,0,0,0,1.8-.431,4.678,4.678,0,0,0,2.283-4.536Z" transform="translate(-0.001 -146.006)" fill="#58595b"/>
      <path id="Path_221" data-name="Path 221" d="M405.534,161.874a4.112,4.112,0,0,0-6.171-3.187,7.722,7.722,0,0,0-4,7.745,4.326,4.326,0,0,0,2.208,3.29,3.886,3.886,0,0,0,1.8.431,4.931,4.931,0,0,0,2.166-.535,7.72,7.72,0,0,0,4-7.744Zm-1.984,3.881c-1.252,2.42-3.662,3.671-5.374,2.787a3.037,3.037,0,0,1-1.507-2.323,6.006,6.006,0,0,1,.673-3.668c1.252-2.421,3.663-3.672,5.374-2.787a3.037,3.037,0,0,1,1.507,2.323A6.006,6.006,0,0,1,403.55,165.754Z" transform="translate(-360.28 -146.007)" fill="#58595b"/>
      <path id="Path_222" data-name="Path 222" d="M291.129,33.433a3.048,3.048,0,0,0,.39.025,3.923,3.923,0,0,0,2.907-1.5.664.664,0,0,0-1-.875,2.22,2.22,0,0,1-4.015-.542,6.458,6.458,0,0,1-.566-3.608,6.1,6.1,0,0,1,2-3.957,2.112,2.112,0,0,1,1.589-.513,2.6,2.6,0,0,1,1.88,1.577,6.456,6.456,0,0,1,.566,3.608,6.859,6.859,0,0,1-.162.872.664.664,0,0,0,1.287.327A8.172,8.172,0,0,0,296.2,27.8a7.7,7.7,0,0,0-.7-4.369,3.912,3.912,0,0,0-2.9-2.29,3.429,3.429,0,0,0-2.568.783,7.377,7.377,0,0,0-2.5,4.848,7.706,7.706,0,0,0,.7,4.369A3.909,3.909,0,0,0,291.129,33.433Z" transform="translate(-262.014 -21.106)" fill="#58595b"/>
      <path id="Path_223" data-name="Path 223" d="M130.443,33.321a3.705,3.705,0,0,0,3.146-2.081,7.635,7.635,0,0,0,.826-4.6c-.375-3.17-2.441-5.652-4.7-5.652a3.7,3.7,0,0,0-3.145,2.079,7.64,7.64,0,0,0-.826,4.6C126.115,30.838,128.181,33.321,130.443,33.321Zm-2.724-9.6a2.478,2.478,0,0,1,1.993-1.411c1.548,0,3.1,2.052,3.384,4.481h0a6.287,6.287,0,0,1-.659,3.785,2.481,2.481,0,0,1-1.993,1.413c-1.547,0-3.1-2.053-3.384-4.482a6.292,6.292,0,0,1,.659-3.786Z" transform="translate(-114.553 -20.986)" fill="#58595b"/>
      <path id="Path_224" data-name="Path 224" d="M183.54,263.816h-4.01a.664.664,0,0,0-.664.664v3.955h-3.957a.664.664,0,0,0-.664.664v4.007a.664.664,0,0,0,.664.664h3.957v3.955a.664.664,0,0,0,.664.664h4.01a.664.664,0,0,0,.664-.664v-3.955h3.957a.664.664,0,0,0,.664-.664V269.1a.664.664,0,0,0-.664-.664H184.2V264.48A.664.664,0,0,0,183.54,263.816Zm3.957,5.947v2.679H183.54a.664.664,0,0,0-.664.664v3.955h-2.681v-3.955a.664.664,0,0,0-.664-.664h-3.957v-2.679h3.957a.664.664,0,0,0,.664-.664v-3.955h2.681V269.1a.664.664,0,0,0,.664.664Z" transform="translate(-158.817 -242.315)" fill="#58595b"/>
    </g>
  </g>
</svg>
